…
## Exercise 3: Include examples

``` r
# for example: we would like to calculate the mean diameter for different tree species
cal_mean(vancouver_trees,"genus_name","diameter")
```

    ## # A tibble: 97 × 8
    ##    genus_name  tree_id civic_number on_street_block height_range_id diameter
    ##    <chr>         <dbl>        <dbl>           <dbl>           <dbl>    <dbl>
    ##  1 ABIES       149149.        2787.           2687.            3.21    12.9 
    ##  2 ACER        136561.        2867.           2810.            2.73    10.6 
    ##  3 AESCULUS     77477.        2835.           2782.            4.60    23.7 
    ##  4 AILANTHUS    99330.        1767.           3650             3.5     15.9 
    ##  5 ALBIZIA     178047         1175            1100             2        6   
    ##  6 ALNUS       117600.        4581.           4104.            3.99    17.5 
    ##  7 AMELANCHIER 200567.        3007.           3306.            1.11     3.21
    ##  8 ARALIA       77886.        2015            1425             1.75     6.81
    ##  9 ARAUCARIA   140802.        3349.           3300             2.5     11.4 
    ## 10 ARBUTUS     169020.        2731.           2850             3.2     18.4 
    ## # … with 87 more rows, and 2 more variables: longitude <dbl>, latitude <dbl>
…
